[{
  "id": 1,
  "fecha": "12/1/2018",
  "importe": 100,
  "latitud": 50.6417502,
  "longitud": 21.9038087,
  "ciudad": "Zaleszany"
}, {
  "id": 2,
  "fecha": "2/5/2019",
  "importe": 20,
  "latitud": 41.8186298,
  "longitud": 46.2781308,
  "ciudad": "Lagodekhi"
}, {
  "id": 3,
  "fecha": "9/19/2019",
  "importe": 9,
  "latitud": -8.6470988,
  "longitud": 115.2229232,
  "ciudad": "Kangin"
}, {
  "id": 4,
  "fecha": "10/13/2018",
  "importe": 98,
  "latitud": 54.1694522,
  "longitud": 74.69325,
  "ciudad": "Novovarshavka"
}, {
  "id": 5,
  "fecha": "11/26/2018",
  "importe": 98,
  "latitud": 4.485011,
  "longitud": -74.259334,
  "ciudad": "Sibaté"
}, {
  "id": 6,
  "fecha": "5/29/2019",
  "importe": 66,
  "latitud": 31.932456,
  "longitud": 98.425168,
  "ciudad": "Garang"
}, {
  "id": 7,
  "fecha": "3/3/2019",
  "importe": 63,
  "latitud": 37.114895,
  "longitud": 114.839318,
  "ciudad": "Chengzhai"
}, {
  "id": 8,
  "fecha": "4/15/2019",
  "importe": 9,
  "latitud": 48.7855359,
  "longitud": 2.0425663,
  "ciudad": "Saint-Quentin-en-Yvelines"
}, {
  "id": 9,
  "fecha": "1/31/2019",
  "importe": 49,
  "latitud": "7.2225",
  "longitud": "124.25333",
  "ciudad": "Salimbao"
}, {
  "id": 10,
  "fecha": "3/20/2019",
  "importe": 18,
  "latitud": -19.5365508,
  "longitud": -40.6258001,
  "ciudad": "Colatina"
}, {
  "id": 11,
  "fecha": "2/27/2019",
  "importe": 14,
  "latitud": -10.4318725,
  "longitud": 105.6735131,
  "ciudad": "Flying Fish Cove"
}, {
  "id": 12,
  "fecha": "2/25/2019",
  "importe": 66,
  "latitud": 24.674624,
  "longitud": 102.904318,
  "ciudad": "Chengjiang"
}, {
  "id": 13,
  "fecha": "2/8/2019",
  "importe": 23,
  "latitud": 14.2559497,
  "longitud": 101.0315823,
  "ciudad": "Ban Na"
}, {
  "id": 14,
  "fecha": "5/25/2019",
  "importe": 63,
  "latitud": 14.648875,
  "longitud": 121.095063,
  "ciudad": "Malanday"
}, {
  "id": 15,
  "fecha": "1/4/2019",
  "importe": 70,
  "latitud": 22.2678103,
  "longitud": 114.2360778,
  "ciudad": "Chaiwan"
}, {
  "id": 16,
  "fecha": "4/4/2019",
  "importe": 25,
  "latitud": 34.477861,
  "longitud": 110.084789,
  "ciudad": "Huashan"
}, {
  "id": 17,
  "fecha": "10/15/2018",
  "importe": 74,
  "latitud": 43.4945737,
  "longitud": 5.8978018,
  "ciudad": "Paris 16"
}, {
  "id": 18,
  "fecha": "1/18/2019",
  "importe": 38,
  "latitud": 39.4781672,
  "longitud": -8.5367175,
  "ciudad": "Torres Novas"
}, {
  "id": 19,
  "fecha": "4/26/2019",
  "importe": 93,
  "latitud": 6.5243793,
  "longitud": 3.3792057,
  "ciudad": "Lagos"
}, {
  "id": 20,
  "fecha": "5/3/2019",
  "importe": 23,
  "latitud": 52.4242797,
  "longitud": 104.0456397,
  "ciudad": "Meget"
}]
